﻿qstr_Default|Por defecto
qstr_Done|Confirmar
qstr_1._Tick_on__Apply__t|Marca 'Aplicar' para equipar a tus soldados con armas y caballos. ^O haz clic en '{s1}' para abrir el panel de configuración de armas. ^De otro modo, los soldados serán equipados aleatoriamente.
qstr_{s1}^^Level:_{reg1}|{s1}^^Nivel: {reg1}
qstr_{s1}^HP:_{reg1}/{reg|{s1}^HP: {reg1}/{reg2}
qstr_{s1}^Energy:_{reg3}%|{s1}^Energía: {reg3}%
qstr_{s1}^HP:_{reg1}|{s1}^HP: {reg1}
qstr_{s3}^STR:_{reg1}^INT|{s3}^STR: {reg1}^INT: {reg2}^^Habilidades: 
qstr_{s3}^Power_Strike:_{|{s3}^Power strike: {reg1}^Power draw: {reg2}^Power throw: {reg3}^Archery: {reg4}^^Proficiency in using weapon: 
qstr_{s3}^1_Hand_Wpns:_{r|{s3}^Una mano: {reg1}^Dos manos: {reg2}^Polearm: {reg3}^Firearm: {reg4}
qstr_{s4}^AGI:_{reg1}^CHA|{s4}^AGI: {reg1}^CHA: {reg2}^^
qstr_{s4}^Ironflesh:_{reg|{s4}^Ironflesh: {reg1}^Atletismo: {reg2}^Escudo: {reg3}^Montar: {reg4}^^
qstr_{s4}^Archery:_{reg1}|{s4}^Arcos: {reg1}^Ballestas: {reg2}^Lanzamiento: {reg3}^
qstr_Attributes:|Atributos:
qstr_PRI|PRM
qstr_WLK|FOT
qstr_GNR|GNR
qstr_MOT|MOT
qstr_DIM|WLK
qstr_General|General weapon (routine)
qstr_Walking|Foot weapon (only cavalry)
qstr_Primary|Main weapon (preferred in battle)
qstr_Apply|Apply
qstr_Group_header:_|Unit ID: 
qstr_{s2}_has_been_assign|{s2} is assigned to {s1} unit.
qstr_Battle_Disposition|Battle disposition
qstr_Leadership|Liderazgo
qstr_Special_skills|Habilidad especial
qstr_Return|Volver
qstr_Weapons|Arma
qstr_Formation|Formación
qstr_Tactical|Tácticas
qstr_Commander|Comandante
qstr_Commander:|Comandante:
qstr__Commander_|(Comandante)
qstr__{s2}_leader_|({s2} líder)
qstr_Select|Seleccionar
qstr_{s1}^^Leadership_of_|{s1}^^Liderazgo:
qstr_Please_select_a_comm|¡Selecciona un comandante! 
qstr_The_Commander_has_be|Commander is canceled!
qstr_The_{s1}_Leader_has_|{s1} group leader is canceled!
qstr_Initial_Formation:|Formación inicial:
qstr_10M/Grid|10 metros / celda
qstr_20M/Grid|20 metros / celda
qstr_Troop_Setting|Configuración de tropas
qstr_Infantry|Infantry
qstr_Archer|Arquero
qstr_Cavalry|Caballero
qstr_Vacancy|Vacante
qstr_Grounp_Leaders:|Líder de grupo: 
qstr_INF|INF
qstr_ARC|ARC
qstr_CAV|CAV
qstr_{s10}_Come_along_wit|{s10}, sígueme! 
qstr_{s1}:{s2}fight_with_|{s1}: {s2}, usa {s3}!
qstr_1.Drag_the_slider_in|1. Drag the slider to put a stake,^then click on 'GO'.^^2. The three buttons below will^light up when the machine works.^Click on the buttons one by one^to stop each vertical roll.^^3. Click on 'AGAIN' will start^another round.
qstr_Close|Cerrar
qstr_Bet:_{reg10}_Denars|Stake: {reg10} denar(s).
qstr_x{reg2}_Reward:{reg3|{reg2} times, bonus: {reg3}
qstr_{reg2}_Row_Reward:{r|{reg2} lines, bonus: {reg4}
qstr_Total:_{reg5}_Denars|Total bonus: {reg5} denar(s)
qstr_Again|REPETIR
qstr_Start|ADELANTE
qstr_Help|AYUDA
qstr_Glod:_{reg2}_Denars|Dinero: {reg2} denar(s)

qstr_Select_the_Tactics:^|Select Tactics: ^^^Choose 'Yes' for a frontal attack to approach the enemy boat and fight hand-to-hand.  ^^Choose 'No' for an outflanking attack to move around and fight circuitously. The success rate increases with your pathfinding skill. Current success rate: {reg6}%.
qstr_Fight_Hand_to_hand!|¡Lucha mano a mano!
qstr_Outflanking_Tactics_|¡Exito al flanquear!
qstr_Outflanking_Tactics_F|¡Fracaso al flanquear!
qstr_{s1}_withdrawal_from|{s1} is drowning and withdrawn from the battle!
qstr_{s1}_fell_overboard_|{s1} is drowned from the boat!
qstr_You_defeated_the_pir|You and your companions greatly defeated the pirates. The caravan has a short rest and then leaves the dangerous area rapidly…
qstr_You_failed._Fortunte|You are defeated but fortunately escaped because these pirates' targeta are just silver and goods…
qstr_Because_ammunition_c|You spent {reg1} denars on the arrows.
qstr_Cloud_amount:_{reg2}|Amount of Cloud: {reg2}
qstr_Fog_strength:_{reg2}|Concentration of Fog: {reg2}
qstr_Press_any_key|Click on any key
qstr_Whistled_for_call_ho|Whistle up a horse
qstr_Stop_the_horse|Draw rein
qstr_Tactics_setting_pane|Tactics setting panel
qstr_Make_up|Assemble
qstr_Take_apart|Take apart
qstr_Cancel|Cancel
qstr_Please_choose_the_co|Please choose the right item(s).
qstr_Select_Make_up_or_Ta|Choose 'Assemble' or 'Take apart'.
qstr_Put_the_unarmored_ho|Put a horse and an armor in separate boxes in the upper left.^Then the assembling result will be given below.^Click on 'Done' to confirm or 'Cancel' to return.
qstr_Put_the_armored_hour|Put an armored horse in the left lower box.^Then the disassembling result will be given above.^Click on 'Done' to confirm or 'Cancel' to return.
qstr_Can_Penetrate_Shield|Able to penetrate the shield
qstr_Inventory_space_is_n|Not enough room in your inventory!
qstr_Inf._leadership:_{s1|Infantry leadership: {s1}^Archer leadership: {s2}^Cavalry leadership: {s3}
qstr_Inf._leadership:_{s1}|Infantry leadership: {s1}^Archer leadership: {s2}^Cavalry leadership: {s3}^^{s0}
qstr_.|-
qstr_{s2}_gained_{reg1}_E|{s2} gained {reg1} points of {s1} leadership.
qstr_{s1}_gained_{reg1?{r|{s1}'s {reg1?infantry leadership +{reg1}:}{reg2?, archer leadership +{reg2}:{reg3?:.}}{reg3?, cavalry leadership +{reg3}.:}
qstr_{s1}__{s2}_leadershi|{s1}' {s2} leadership enhances from {s3} to {s4}.
qstr_you_get_the_{s3}{s1}|Item acquired: {s3}{s1}
qstr_you_lost_the_{s3}{s1|Item lost: {s3}{s1}
qstr_you_lost_the_{s2}{s1|Item lost: {s2}{s1}.

qstr_imod_plain|Plain 
qstr_imod_cracked|Cracked 
qstr_imod_rusty|Rusty 
qstr_imod_bent|Bent 
qstr_imod_chipped|Chipped 
qstr_imod_battered|Battered 
qstr_imod_poor|Poor 
qstr_imod_crude|Crude 
qstr_imod_old|Old 
qstr_imod_balanced|Balanced 
qstr_imod_tempered|Tempered 
qstr_imod_heavy|Heavy 
qstr_imod_tattered|Tattered 
qstr_imod_ragged|Ragged 
qstr_imod_rough|Rough 
qstr_imod_sturdy|Sturdy 
qstr_imod_thick|Thick 
qstr_imod_hardened|Hardened 
qstr_imod_reinforced|Reinforced 
qstr_imod_lame|Lame 
qstr_imod_swaybacked|Swaybacked 
qstr_imod_stubborn|Stubborn 
qstr_imod_spirited|Spirited 
qstr_imod_fresh|Fresh 
qstr_imod_day_old|One-day-old 
qstr_imod_two_day_old|Two-day-old 
qstr_imod_smelling|Stale
qstr_imod_rotten|Rotten 
qstr_imod_large_bag|Large bag 
qstr_imod_superb|Super 
qstr_imod_lordly|Lordly 
qstr_imod_timid|Exquisite 
qstr_imod_meek|Excellent 
qstr_imod_sharp|Powerful 
qstr_imod_deadly|Bloody 
qstr_imod_powerful|Sharp 
qstr_imod_champion|Deadly 
qstr_imod_strong|Strong 
qstr_imod_masterwork|Masterwork 
qstr_imod_well_made|Well made 
qstr_imod_exquisite|Reinforced 
qstr_imod_cheap|Light 
qstr_imod_fine|Fine

qstr_{s59}_cha_raised_{re|{s59}'s CHA increases by {reg59} points.
qstr_{s59}_cha_reduced_{r|{s59}'s CHA decreases by {reg59} points.
qstr_{s59}_ironflesh_rais|{s59}'s 'iron flesh' increases by {reg59} points.
qstr_{s59}_ironflesh_redu|{s59}'s 'iron flesh' decreases by {reg59} points.
qstr_{s59}_power_st_raise|{s59}'s 'power strike' increases by {reg59} points.
qstr_{s59}_power_st_reduc|{s59}'s 'power strike' decreases by {reg59} points.
qstr_{s59}_power_th_raise|{s59}'s 'power throw' increases by {reg59} points.
qstr_{s59}_power_th_reduc|{s59}'s 'power throw' decreases by {reg59} points.
qstr_{s59}_power_dr_raise|{s59}'s 'power draw' increases by {reg59} points.
qstr_{s59}_power_dr_reduc|{s59}'s 'power draw' decreases by {reg59} points.
qstr_{s59}_shield_raised_|{s59}'s 'shield' increases by {reg59} points.
qstr_{s59}_shield_reduced|{s59}'s 'shield' decreases by {reg59} points.
qstr_{s59}_athletics_rais|{s59}'s 'athletics' increases by {reg59} points.
qstr_{s59}_athletics_redu|{s59}'s 'athletics' decreases by {reg59} points.

qstr_Take_off_the_{s2}_wi|{s1} is to destroyed for taking off {s2} 
qstr_Restore_the_{s1}_wil|{s2} is to destroyed for restoring {s1}

qstr_Guarantee_ranged:{s1|Guarantee ranged weapon: {s1}
qstr_Skip|Skip
qstr_Cancel|Cancel
qstr_Kill_them_all!|Kill them all! 
qstr_You_have_beaten_{reg| You took {reg1} enemies!
qstr_Your_bravery_inspire|Your bravery inspires the soldiers!
qstr_enemy_leader_{s49}|Enemy leader: {s49}
qstr_Enemy_leader_is_die!|The enemy leader is taken out!
qstr_Your_enemy_into_chao|Enemy falls and collapse in disorder!
qstr_Your_enemy_not_be_af|Enemy appears not being affected.
qstr_Your_enemy_back_to_n|Enemy is recovering from disorder!
qstr_Ally_morale_shake|Our morale waves!
qstr_Enemy_morale_shake|Enemy's morale waves!
qstr_Your_enemy_began_to_|Enemy is in low morale and collapsing in disorder!
qstr_Your_soldiers_began_|We are in low morale and collapsing in disorder!
qstr_{reg62}_enemy_soldie|{reg62} enemy soldiers laid down their arms!
qstr_Ally_battle_morale:_|Our morale: {reg59}
qstr_Enemy_battle_morale:|Enemy morale: {reg59}
qstr_{reg62}_enemy_soldier|Other {reg62} enemy soldiers laid down their arms!
qstr_Constable_Hareck_ask|Constable Hareck asked you to hunt down the river pirates around Zendar. He will pay you 100 denars for each party you destroy.

qstr_all_troops_hp_resump|You and your companions has recovered some energy!
qstr_Replacement_skill_ic|Replace skill icon
qstr_Selected_skill|Select current skill
qstr_Cancel_selected|Cancel selection
qstr_Show_current_morale|Show current morale
qstr_Done|Done
qstr_Default|Default
qstr_Press_any_key|Click on any key
qstr_Select_infantry_form|Select infantry formations
qstr_Infantry_array_forwa|Infantry march in formation
qstr_Archers_line_switch|Archer lines formaton
qstr_Arms_Tactical_choice|Choose group tactics
qstr_Tactical_implementat|Implement group tactics
qstr_Battlefield_radar_sw|Battlefield radar
qstr_The_mirror_of_truth_|Mirror of Truth
qstr_Use_special_skills|Use special skills

qstr_Kick|Kick
qstr_Sprint|Sprint
qstr_Your_money_is_not_en|You don't have enough denars.
qstr_Hit|Hit
qstr_Stay|Stay
qstr_Double|Double
qstr_Bet:_{reg51}Denar|Stake: {reg51} denar(s)
qstr_Money:_{reg1}Denar|Principal: {reg1} denar(s)
qstr_Bet:_0_Denar|Stake: 0 denar(s)
qstr_Done|Done
qstr_Draw_the_bets_be_ret|Draw. Bets return.
qstr_The_banker_has_a_Bla|The dealer gets a Blackjack and wins you 1.5 times the stakes.
qstr_You_have_a_Blackjack|You get a  Blackjack and win 1.5 times the stakes.
qstr_The_banker_s_hand_va|The dealer gets 21+ points and bombs. You win!
qstr_Your_hand_value_is_o|You get 21+ points and bomb. You lose!
qstr_The_banker_has_a_hig|The dealer gets a bigger sum. You lose!
qstr_You_have_a_higher_ha|You get a bigger sum. You win!
qstr_You_lose._Try_again?|You lose. Play again?
qstr_You_win!_Try_again?|You win. Play more?
qstr_Draw._Try_again?|Draw. Another round?
qstr_Yes|Yes
qstr_No|No
qstr_Banker_stay.|The dealer stays.
qstr_You_stay.|You stay.
qstr_Double_bets!_You_can|The stake is doubled! You can only get one more card.
qstr_Not_right_now.|Not now.
qstr_Looking_for_export!|Look for the way out!
qstr_Time_received:_{s60}|Time of receiving quest: {s60} 
qstr_Time_renewed:_{s63}|Time of renew quest: {s63} 
qstr_{s59}_STR_raised_{re|{s59}'s STR increases by {reg59} point(s). 
qstr_{s59}_STR_reduced_{r|{s59}'s STR decreases by {reg59} point(s).
qstr_{s59}_AGI_raised_{re|{s59}'s AGI increases by {reg59} point(s).
qstr_{s59}_AGI_reduced_{r|{s59}'s AGI decreases by {reg59} point(s).
qstr_{s59}_INT_raised_{re|{s59}'s INT increases by {reg59} point(s).
qstr_{s59}_INT_reduced_{r|{s59}'s INT decreases by {reg59} point(s).
qstr_{s59}_CHA_raised_{re|{s59}'s CHA increases by {reg59} point(s).
qstr_{s59}_CHA_reduced_{r|{s59}'s CHA increases by {reg59} point(s).
qstr_{s59}_Ironflesh_rais|{s59}'s 'iron flesh' increases by {reg59} point(s).
qstr_{s59}_Ironflesh_redu|{s59}'s 'iron flesh' decreases by {reg59} point(s).
qstr_{s59}_Power_Strike_r|{s59}'s 'power strike' increases by {reg59} point(s).
qstr_{s59}_Power_Strike_re|{s59}'s 'power strike' decreases by {reg59} point(s).
qstr_{s59}_Shield_raised_|{s59}'s 'shield' increases by {reg59} point(s).
qstr_{s59}_Shield_reduced|{s59}'s 'shield' decreases by {reg59} point(s).
qstr_{s59}_Athletics_rais|{s59}'s 'athletics' increases by {reg59} point(s).
qstr_{s59}_Athletics_redu|{s59}'s 'athletics' decreases by {reg59} point(s).
qstr_{s59}_Power_Throw_ra|{s59}'s 'power throw' increases by {reg59} point(s).
qstr_{s59}_Power_Throw_re|{s59}'s 'power throw' decreases by {reg59} point(s).
qstr_{s59}_Power_Draw_rai|{s59}'s 'power draw' increases by {reg59} point(s).
qstr_{s59}_Power_Draw_red|{s59}'s 'power draw' decreases by {reg59} point(s).


qstr_{s59}_equ_dmsg|{s59} wears 'Damascus Steel Armor' suit^'Iron flesh'+{reg1}
qstr_{s59}_s_dmsg_are_not|{s59}'s Damascus Steel Armor is imcomplete^'Iron flesh'-{reg1}
qstr_{s59}_equ_headhunter|{s59} wears 'Helmet of A Champion'^'Leadership'+1
qstr_{s59}_remove_headhun|{s59} takes off 'Helmet of A Champion'^'Leadership'+1
qstr_{s59}_s_equ_damascus|'Damascus Steel Armor' suit and 'Helmet of A Champion' resonate! ^{s59}'s 'Leadership'+1, 'Prisoner's management'+1
qstr_{s59}_s_damascus_ste|'Damascus Steel Armor' suit and 'Helmet of A Champion' does not resonate! ^{s59}'s 'Leadership'-1, 'Prisoner management'-1
qstr_{s59}_equ_knight_swo|{s59} wears 'Sword of A Knight'^'Power strike'+1, 'Agi'+2, one-handed weapon skill+40 
qstr_{s59}_remove_knight_|{s59} takes off 'Sword A Knight'^'Power strike"-1, 'Agi'-2, one-handed weapon skill-40 
qstr_{s59}_equ_tang_sword|{s59} is equipped with 'Tang Sword'^'Power strike'+1, 'Agi'+2, one-handed weapon skill+40 
qstr_{s59}_remove_tang_sw|{s59} takes off 'Tang Sword'^'Power strike'-1, 'Agi'-2, one-handed weapon skill-40 
qstr_{s59}_equ_excalibur|{s59} is equipped with 'Excalibur'^'Power strike'+1, 'Str'+1, 'Agi'+1, one/two-handed weapon skill+20 
qstr_{s59}_remove_excalib|{s59} takes off 'Excalibur'^'Power strike'-1, 'Str'-1, 'Agi'-1, one/two-handed weapon skill-20 
qstr_{s59}_equ_persian_ki|{s59} is equipped with 'Persian King's Sword'^ "Power strike"+1， "Str"+1， "Agi"+1， one/two-handed weapon skill +20 
qstr_{s59}_remove_persian|{s59} takes off 'Persian King's Sword'^ "Power strike"-1， "Str"-1， "Agi"-1， one/two-handed weapon skill -20 
qstr_{s59}_equ_narsil|{s59} is equipped with 'Narsil'^'Power strike'+1, 'Str'+2, two-handed weapon skill +40 
qstr_{s59}_remove_narsil|{s59} takes off 'Narsil'^'Power strike'-1, 'Str'-2, two-handed weapon skill -40 
qstr_{s59}_equ_trgba|{s59} is equipped with 'Gimli's Battle Axe'^'Power strike'+2, 'Str'+2, two-handed weapon skill+50 
qstr_{s59}_remove_trgba|{s59} takes off 'Gimli's Battle Axe'^'Power strike'-2, 'Str'-2, two-handed weapon skill-50 
qstr_{s59}_equ_iron_staff|{s59} is equipped with 'IronCramp Staff'^ 'Power strike'+1, 'Agi'+2, polearm skill+50 
qstr_{s59}_remove_iron_st|{s59} takes off 'IronCramp Staff'^'Power strike'-1, 'Agi'-2, polearm skill-50
qstr_{s59}_equ_steelhead_|{s59} is equipped with 'Steel Spear'^'Power strike'+1, 'Str'+1, 'Agi'+1, polearm skill+40 
qstr_{s59}_remove_steelhe|{s59} takes off 'Steel Spear'^'Power strike'-1, 'Str'-1, 'Agi'-1, polearm skill-40 
qstr_{s59}_equ_gai_bolga|{s59} is equipped with 'Gai-Bolga'^'Power strike'+1, 'Str'+2, polearm skill+40 
qstr_{s59}_remove_gai_bol|{s59} takes off 'Gai-Bolga'^'Power strike'-1, 'Str'-2, polearm skill -40 
qstr_{s59}_equ_haemophilu|{s59} is equipped with 'Bloody Javelin'^'Power throw'+2, 'Str'+2, throwing skill+60 
qstr_{s59}_remove_haemoph|{s59} takes off 'Bloody Javelin'^'Power throw'-2, 'Str'-2, throwing skill -60 
qstr_{s59}_equ_elven_bow|{s59} is equipped with 'Elven Bowl'^'Power draw'+1, 'Str'+1, 'Agi'+1, archery skill+30 
qstr_{s59}_remove_elven_b|{s59} takes off 'Elven Bowl'^'Power draw'-1, 'Str'-1, 'Agi'-1,  archery skill-30 
qstr_{s59}_equ_heaven_ham|{s59} is equipped with 'Heaven Hammer'^'Power strike'+2, 'Str'+1, two-handed weapon skill+30 
qstr_{s59}_remove_heaven_|{s59} takes off 'Heaven Hammer'^'Power strike'-2, 'Str'-1, two-handed weapon skill-30 

qstr_you_have_book_1|Receive the Great Cyclopedia (part I)
qstr_raise_ca_book_1|'Int'+1, reading speed increases to 200%
qstr_not_has_book1|Lose the Great Cyclopedia (part I)
qstr_down_ca_book1|'Int'-1, reading speed returns to 100%
qstr_you_have_book_2|Receive the Great Cyclopedia (part II)
qstr_not_has_book2|Lost the Great Cyclopedia (part II)
qstr_you_have_all_books|Have got the full edition of Great Cyclopedia
qstr_effect_add_all_books|'Int'+2, all skills related to 'Int'+2, reading speed increases to 400%
qstr_not_has_all_books|The Great Cyclopedia is imcomplete
qstr_effect_sub_all_books|'Int'-3, all related skills -2, reading speed decreases to 200%
qstr_not_has_all_books2|Lost the full edition of the Great Cyclopedia
qstr_effect2_sub_all_book|'Int'-4, all related skills -2, reading speed returns to 100%
qstr_You_need_250_courage|You need 250 points of courage to read it.

qstr_{s6}^enemy_faction_s|{s6}^Part of your soldiers from enemy factions are in low spirit! 
qstr_completed_progressio|Degree of completion: {reg0}%
qstr_Reading_pragress:{re|Reading process: {reg1}% ^On the first page: ^『OATH OF A KNIGHT』^ Be loyal of hand and of mouth,^seeking to serve every man as best ye may.^Seek ye the fellowship of good men, ^hearken unto their words and remember them.^Be humble and courteous wherever thou goest,^not talking much,^neither being dumb altogether.^Allow no women or child to suffer by thy default,^so that if ye may lift thy hand to assist one, do so.^If thou must draw thy sword to defend them,^do so unto thy own death.^If thou come into fellowship with boys^or men who speak in a disrespectful manner of any women or maiden,^let them know in gracious words that this displeases thou^and thy Lord, then depart their company forthwith.^Thou art to defend and protect those who seek to worship^in the name of the Lord Jesus Christ and promote faith^in Him throughout this earth He has made.
qstr_Reading_pragress:_{r|Reading process: {reg1}% ^^There's a preface on the first page:^This is a  kind of mystery gongfu taken from the East,^through which you can gain an invicible fighting skill but by losing a thing precious on you.^......   
qstr_pathfinding|Pathfinding
qstr_engineer|Engineering
qstr_tactics|Tactics

qstr_A_weapon_from_the_ol|A great weapon from an ancient eastern kingdom.^It has a straight body and plain image within^the scabbard, but scintillates incisively when drawn^out, which explains the gentle,modest and courteous^eastern culture. So it is in the eastern Confucian^culture - a real master never advertises, yet the^one who does, is often not a real master. 
qstr_The_sword_of_the_fam|The famous sword of Persian king^Daria, who stood undefeated with it^in the battle for his entire life.^It acts as a token of the victory,^representing the splendid life the king lived.
qstr_The_symbol_of_the_le|Excalibur has some other names such as^'Steel Breaker', 'Iron Cutter' and 'Lake Born'.^It is said to be the token of King Arthur's crown,^whose owner, wearing this sword with Elven magic,^successfully made the knights kneel before him,^and finally established his reign with quite many victories.
qstr_Paladin_Roland_s_swo|The sword belongs to Paladin Roland from the^famous ancient poem - 'Song of Roland',^who was the first one to receive the title of a^paladin. As symbols of justice and sanctity,^his sword and his horn are both holy.
qstr_The_main_weapon_of_G|Gimli the Warrior's main weapon.^This huge double - edged axe is made of^cosmic iron by an Elven master smith.^It is full of power and^has yet to know any abrasions.
qstr_Made_by_the_famous_T|A sword made by the most famous smith from Nogrod.^It had been broken in Elendil's defense against^the dark lord Sauron, when Elendil's son,^Isildur, cut Sauron's finger with the broken sword^and defeated him. Narsil was reforged during the^great war of the Ring, by Isildur's descendant - Aragorn. 
qstr_Made_by_the_iron_for|A spear made of cosmic iron, long but light.^It has been refined hundreds of times,^but is still sharp with tenacity.^It will bring great power in a skillful hand,^there's a reason it's called "the king of weapons".
qstr_Shows_the_colour_of_|Its body shining in a dark purple tone,^the bow has a translucent, light golden string^and decorated with some golden patterns.^It is similar to a war bow in appearance^but actually more portable and deadly. 
qstr_The_armour_is_made_b|The Damascus Steel Armor Suit is made of a kind^of specially forged steel and decorated with subtle^patterns, thus it can be much stronger than the^average steel armor. It is combined of three parts,^- the body armor, the greaves and the gauntlets.^A complete suit will give a 2-point bonus^to your iron flesh, and an extra bonus combined^with the 'Helmet of a Champion'.
qstr_Leadership_+1._^Will|Leadership +1. It will give an extra bonus^combined with the 'Damascus Steel Armor Suit'. 
qstr_iron_staff_ex_text|It is one of the best weapons for the melee^fighting, made of a numinous wood from the ^ancient East for the core and the hardest black^iron rings wound around for the surface.^It can bring out mighty power in a^tremendous speed to break everything.
qstr_gai_bolga_text|A legendary magic spear under the^influence of a curse, made from the skull^of a giant two-headed sea-monster.^It has super strength, which may even^produce negative effects on the owner.
qstr_heaven_hammer_text|In the legend, the Gods used it to punish^those who dare challenge justice.^With the power of heaven, the royal Paladins^have administered justice in the world.
qstr_haemophilus_cast_spe|It is one of the three javelins from^the Nordic hero Garngun, who killed the giant^sea monster with it and left it in the^monster's heart to prevent it's reviving.
qstr_Be_able_to_pull_thro|A blessed golden shield that saves^people from danger with a kind^of holy power, which will take^a while for its recovery.
qstr_The_mirror_of_truth.|It is a supernatural mirror, through which^you can view the scene in truth.^Switch on/off by clicking key-{s57} in the scene.^Better in first-person camera (click key-R)
qstr_Edutied_by_several_m|A set of books co-written by several famous scholars^of Calradia. These rare books covered a wide range^of topics and gave the explanations profoundly.^The complete set of encyclopedia has two parts.^This is the first half.
qstr_Edutied__by_several_|A set of books co-written by several famous scholars^of Calradia. These rare books covered a wide range^of topics and gave the explanations profoundly.^The complete set of encyclopedia has two parts.^This is the second half.
qstr_It_represents_the_gr|This is the greatest honour a mercenary knight can have.^Only the elite ones can achieve it. 
qstr_It_represents__the_g|This is the greatest honour a mercenary warrior can have.^Only the elite ones can achieve it.  
qstr_A_golden_medal_engra|This golden medal engraved with ancient Calradia characters^has some odd patterns in a mystery gleaming.^About the golden medal, there are^all kinds of stories around the world.^Perhaps it is true that^there are still many secrets hidden in the treasure.
qstr_The_most_valuable_tr|The greatest secret treasure of Calraida, symbol of the greatest King in the world.

qstr_Leave_from_river_pri|^Back to the ocean, east to Ewu River,^^ Not the first, but the third one. 
qstr_Only_stones_couldhum|^Just stones can outfox the guards. ^^Otherwise nothing can be done there.
qstr_The_dim_candlelight_|^In dim light of candles, there is the dinner of death, ^^wholy under their eyes.
qstr_See_may_not_be_true_|^Things in your eyes might not be true ^^that mirror gives evidence.
qstr_Torture_them_from_ri|Torture them from right to left again and again^^until truth comes out.
qstr_The_gem_contains_the|A gem containing the power of wind;^'Spotting'+1,^'Pathfinding'+1
qstr_The_gem_contains_the_|A gem containing the power of sky;^'Tactics'+1,^'Tracking'+1
qstr_The_gem_contains_the_p|A gem containing the power of earth;'Surgury'+1^'extra health recovery' is on
qstr_The_gem_contains_the_po|A gem containing the power of water;^'First aid'+1,'Wound treatment'+1;^Able to breathe under water
qstr_The_gem_contains_the_pow|A gem containing the power of fire;'Trainer'+1^'Engineer'+1
qstr_fire_gem_effect3|The prosperity of your land {s58} doubled.
qstr_fire_gem_effect4|The prosperity of your land {s58} halved.
qstr_earth_guard|【Ward of Earth】
qstr_all_agents_hp|Health of our side recovered by 25%!
qstr_ji_xu_li_liang|The earth gem is accumulating its energy.
qstr_sky_gem_effect|【Guidance of Sky】
qstr_sky_gem_effect_txt|You avoided all the guards!
qstr_sky_gem_effect2_txt|The unit being followed will be shown on the map for {reg5} hours! 
qstr_fire_gem_effect|【Revelation of Fire】
qstr_fire_gem_effect_txt|The construction speeds up!
qstr_fire_gem_effect2_txt|The speed of building is doubled!
qstr_fire_gem_effect3_txt|The training effect increases!
qstr_water_gem_effect|【Grace of Ocean】
qstr_water_gem_effect_txt|All deserters come back!
qstr_water_gem_effect2_tx|Prisoners' hostility decreases!
qstr_wind_gem_effect|【Inspiration of Wind】
qstr_wind_gem_effect_txt|The consumption of morale slowed down half!
qstr_wind_gem_effect2_txt|Our party morale rises!
qstr_has_earth_gem|Acquired【Ward of Earth】
qstr_effect_add_earth_gem|Surgery +1, with 'extra health recovery'
qstr_no_earth_gem|Lost【Ward of Earth】
qstr_effect_sub_earth_gem|Surgery -1, without 'extra health recovery' 
qstr_has_fire_gem|Acquired【Revelation of Fire】
qstr_effect_add_fire_gem|Trainer +1, Engineer +1
qstr_no_fire_gem|Lost【Revelation of Fire】
qstr_effect_sub_fire_gem|Trainer -1, Engineer -1
qstr_has_water_gem|Acquired 【Grace of Ocean】
qstr_effect_add_water_gem|Wound treatment +1, First aid +1
qstr_no_water_gem|Lost【Grace of Ocean】
qstr_effect_sub_water_gem|Wound treatment -1, First aid -1
qstr_has_sky_gem|Acquired 【Guidance of Sky】
qstr_effect_add_sky_gem|Tactics +1, Tracking +1
qstr_no_sky_gem|Lost【Guidance of Sky】
qstr_effect_sub_sky_gem|Tactics -1, Tracking -1
qstr_has_wind_gem|Acquired【Inspiration of Wind】
qstr_effect_add_wind_gem|Spotting +1, Pathfinding +1
qstr_no_wind_gem|Lost【Inspiration of Wind】
qstr_effect_sub_wind_gem|Spotting -1, Pathfinding -1
qstr_has_hero_medal|Acquired "Hero Medal"
qstr_effect_add_hero_meda|'Cha'+3, 'leadership'+1, morale increases!
qstr_no_hero_medal|Lost " Hero Medal"
qstr_effect_sub_hero_meda|'Cha'-3, 'leadership'-1, morale falls!

qstr_For_Fusion|For fusion 
qstr_relation:_{reg1}|Relationship: {reg1}
qstr_Relation:_{reg1}|Relationship: {reg1}
qstr_Energy:_{reg1}%|Energy: {reg1}%

qstr_Five_{s1}_leave_your|Five {s1} left your party
qstr_Five_{s1}_join_your_|Five {s1} joined your party
qstr_{reg1}_{s1}_join_you|{reg1} {s1}(s) joined your party

qstr_{s1}_s_one_handed_we|{s1}'s proficiency in using one-handed weapon increases to {reg1}.
qstr_{s1}_s_two_handed_we|{s1}'s proficiency in using two-handed weapon increases to {reg1}.
qstr_{s1}_s_polearm_profi|{s1}'s proficiency in using polearm weapon increases to {reg1}.
qstr_{s1}_s_archery_profi|{s1}'s proficiency in using bow increases to {reg1}.
qstr_{s1}_s_crossbow_prof|{s1}'s proficiency in using crossbow increases to {reg1}.
qstr_{s1}_s_throwing_prof|{s1}'s proficiency in using throwing weapon increases to {reg1}.
qstr_{s1}_s_firearm_profi|{s1}'s proficiency in using firearm increases to {reg1}.
qstr_Reveice_new_speciali|Acquired a special skill: {s3}
qstr_Time_renewed: {s63}|Time of Renewing: {s63}
qstr_Time_received: {s60}|Time of Receiving: {s60}
qstr_The_mainline_quest_i|Mainline quest is updated...

qstr_Camping_at_the_north|Camp in north east snowfield near the sea;^When stars shines in the sky^and the horn sounds in the air, ^the will of ancient hero will reoccur.
qstr_Camping_at_the_south|Camp in sorth west desert near the lake;^When stars shines in the sky and the horn sounds in the air, ^the will of ancient hero will reoccur.
qstr_The_holy_force_is_lo|Holy power is hidden somewhere, ^ or it implies the highest glory for the strong.
qstr_The_dark_force_is_ap|Evil power is approaching!^ …………

qstr_Nadif_launched_dark_|Garneev attacks by dark-magic!
qstr_Endless_Abyss!!_____|Endless Abyss!! ^Our party health drops rapidly!
qstr_The_Horn_of_Stars_be|'Star Horn' turns into million rays of light and blocks the dark-magic attack!
qstr_You_have_lost_the_Ho|You lost 'Star Horn'!

qstr_Horses:{s1}|Mount or dismount: {s1}
qstr_Ranged:{s2}|Ranged weapon: {s2}
qstr_Melee:{s3}|Melee weapon: {s3}
qstr_Select_melee_option.|Choose for the melee fight…
qstr_{s4}|{s4}
qstr__{s1}|{s1}
qstr_1any_ranged_weapons|Any ranged weapon.
qstr_1any_thrown_weapons|Any throwing weapon.
qstr_any_ranged_weapons|Any ranged weapon.
qstr_any_thrown_weapons|Any throwing weapon.
qstr_number_of_companions|The number of soldiers exceeded the upper limit by your leadership. {reg1} {s1})(s) went off.
qstr_Quest_canceled:_resc|Quest is canceled: Go rescue the captured lord.

qstr_found_success|Now it seems that a unit of {s2} nearest to us should be around {s3}.
qstr_found_failure|Sorry, boss, I've not found their track yet.
qstr_being_prepared|I'm trying to trace them, boss. Give me time.
qstr_Not_enough_energy!|Not enough energy!
qstr_Energy_restored!|Energy recovers!
qstr_Gather_finished!|Get full energy!
qstr_Enemy_captain:_{s49}|The head of enemy army: {s49}
qstr_The_gems_have_resona|The gems resonate!
qstr_The_Falcon_s_Eyes___|Falcon's Eyes (to trace other armies)
qstr_Darkness_Thunderbolt|Thunderbolt (click on '{s20}' to use it in battle)
qstr_Clouly_Storm___press|Storm Blow (click on '{s20}' to use it in battle)
qstr_Prairie_fire___hold_|Wild Fire (hold '{s20}' while mounting to launch it in battle)
qstr_Powerfu_strike___hol|Wildland Strike (hold '{s20}' while walking to launch it in battle)
qstr_Bleach_Kiss__hold_{s|Bleach Kiss (hold '{s20}' to gather energy and then shoot)
qstr_Doomsday_Storm__hold|Doom Buran (hold 'w' and '{s20}' while mounting)
qstr_Special_Skill:_{s1}|Special skill: {s1}
qstr_{s1}:_Darkness_thund|{s1}: Thunderbolt!!
qstr_{s1}:_Doomsday_storm|{s1}: Doom Buran!!
qstr_{s1}:_Clouly_storm!!|{s1}: Storm Blow!!
qstr_{s1}:_Bleach_Kiss!!|{s1}: Bleach Kiss!!
qstr_Clouly_storm!!|Storm Blow!!
qstr_Prairie_fire!!|Wildland Fire!!
qstr_Powerful_strike!!|Mighty Strike!!
qstr_Retreat_or_continue_|Retreat or continue?
qstr_Retreat|Retreat from the battle
qstr_Watch|Continue watching the battle
qstr_{s1}_of_{s3}_managed|{s1} of {s3} managed to flee away.

qstr_The_boss_in_the_tave| The tavernkeeper in Praven asks you to annihilate the forest bandits and will reward you 500 denars for each unit you destroy.
qstr_The_dark_forces_are_|The rulers of dark side are enraged with you! They assemble a large legion coming up to revenge upon the whole land!
qstr_dark_map_2|Zendar has fallen under your massive attack. The Dark legion is assembled around Zendar and launches a full-scale offensive on the resisting countries!
qstr_North|North
qstr_South|South
qstr_East|East
qstr_West|West
qstr_he|he
qstr_she|she

qstr_I_hearded_you_are_in|They said you are invited to attend the tournament in {s59}. Is it true?
qstr_Do_you_wish_to_join_|Would you join us?
qstr_hao_de|Why not.
qstr_suan_le|Sorry, I'd say no.
qstr_xie_xie|Thanks!
qstr_shide|Yes.
qstr_mei_you_kong_jian|There are no more room in your party. 
qstr_tai_bang_le|That's great!
qstr_ni_zuo_bi_la|You cheated! Chance of prize-winning is reduced! 
qstr_ni_zuo_bi_la_2|You cheated and lost the game!

qstr_{s41}_told_you_that_|{s41} informed that {s43} was taken prisoner by the enemy. You must go find and help him out.
qstr_You_successful_rescu|You saved {s58}! Go reply to the king!
qstr_You_successful_rescue|You saved {s58}! Go reply to {s59}!
qstr_you_get_the_Champion|You gained the 'Champion Belt'!
qstr_you_lose_the_Champio| You lost the 'Champion Belt'!
qstr_At_war|At war
qstr_Keeping_peace|In peace
qstr_Your_advise_is_just_|Your advice is just in time. I will do as soon as possible.
qstr_No_I_think_the_time_|Sorry, I don't think it's the right time.
qstr_The_guards_find_you!|You are exposed! Carve your way out of town!
qstr_The_reinforcement_is|The reinforcements reach the gate!
qstr_Now_it_is_the_first_|Now it comes the first round of group game. Are you ready?
qstr_Now_it_is_the_second|Now it comes the second round of group game. Are you ready?
qstr_Now_it_is_the_third_|Now it comes the third round of group game. Are you ready?
qstr_hao_yun_zhu_ni|Good luck. 
qstr_di_ren_zeng_jia|New opponents join in the fight!
qstr_None.|None
qstr_Special_skill:_none|Special skill: None
qstr_You_learned_special_|You have learned a special skill - 'Storm Blow'!
qstr_I_respect_your_coura|I admire your courage…
qstr_The_repeating_traini|By repeating practice you have digested the skill!
qstr_Learned_Prairie_Fire|You have learned 'Wildland Fire!'  ^You have learned 'Mighty Strike'!  ^Hold {s20} to use it.
qstr_You_found_one_of_the|You found a portrait!

qstr_Infantry|Infantries
qstr_Archers|Archers
qstr_Cavalry|Cavalries
qstr_Stand_by|Stand by
qstr_Charge|Charge
qstr_{s57}_captain|{s57} leader
qstr_Wounded|Wounded
qstr_Commander|Commander
qstr_There_is_no_{s1}_cap|There's no leader of {s1}!
qstr_{s2}:_{s1}_follow_me|{s2}: {s1}, follow me!

qstr_Stop_group_tactic_of|Cancel group tactics for {s1}.
qstr_{s1}:_{s2}_outflank_|{s1}: {s2}, outflank to the right!
qstr_{s1}:_{s2}_follow_me|{s1}: {s2}, follow me, outflank to the right!
qstr_{s1}:_{s2}_outflank_l|{s1}: {s2}, outflank to the left!
qstr_{s1}:_{s2}_follow_me_|{s1}: {s2}, follow me, outflank to the left!
qstr_{s1}:_{s2}_holding_h|{s1}: {s2}, hold the highland!
qstr_{s1}:_{s2}_follow_me_h|{s1}: {s2}, follow me, hold the highland!
qstr_{s1}:_{s2}_rush_repe|{s1}: {s2}, charge!
qstr_{s1}:_{s2}_follow_me_r|{s1}: {s2}, follow me, charge!
qstr_{s1}:_{s2}_march_in_|{s1}: {s2}, follow me, march in lines!
qstr_{s1}:_{s2}_fire_at_w|{s1}: {s2}, all fire!

qstr_{s1}_has_recovered_b|{s1}'s HP recovers by 'Shield of Fate'!
qstr_special_bet_1_tourna|You may put up an extra stake of 1000 denars on a special award for champion. And better you fight, more chance you have.^(Notice: Any cheat will reduce your chance on the contrary.)
qstr_special_bet_2_tourna|You've put up a stake. Now show your best in the game!^( Notice: Any cheat will reduce your chance on the contrary.)
qstr_Yes.|Yes.
qstr_You_get_a_special_pr|For you excellence in the game, you achieve the special award: {s1}.
qstr_You_don_t_get_the_sp|You don't achieve the special award.
qstr_gu_yong_zui_gao_ji_d|Now you can hire manhunters in Zendar. When you destroy some outlaws such as sea raiders, bandits, black Khergit raiders and so on, there will be more manhunters available for your hiring in the town. 
qstr_xun_ma_chang_de_zhu_|The boss of horse market asks you to annihilate the black Khergit raiders and will reward you 800 denars for each unit you destroy.
qstr_chan_da_de_ling_zhu_|As the lord of Zendar, Count Arrasies asks you to annihilate the Dark Avenger armies and will reward you 2000 denars for each unit you destroy. And if you could do well enough, there might be an extra reward for you.

qstr_{reg41}{reg43}jiarud|{reg41} {reg43}(s) joined your party.
qstr__Your_charisma_is_in|Your CHA increases by 5 points.
qstr_eagle_eyes|Borcha acquired special skill – 'The Falcon's Eyes'.  ^^By talking with Borcha you can check location of a unit on the map. ^There's a break between every two checks. It takes less time for the break as Borcha has higher 'tracking' skill.
qstr_hao_ling|By your excellent strategy and leadership, your army always maintains unbeatable cohesion and the soldiers bring out their best under your command. 
qstr_po_di|Your superior courage is the key to victory and your supreme skill is the most powerful arms. Your presence brings the soldiers full confidence and fills the enemies with panic.
qstr_tong_shuai|As the holy-treasure holder you achieved so many victories and big influence, and also gained trust and admiration by these generals. When you give orders to the ally, they will more agree with you and spare no effort in execution.
qstr_recruit_freedom_figh|For your courage and righteousness, you have gained respect and trust of the freedom fighters. When you destroy some dark armies or their allies, Count Arrasies will give you 'Certificate of Knight' or 'Certificate of Warrior'. If you have 'Hired Blade' or 'Mercenary Cavalry' in your party, you can go ask Trainer Guy to help you train them as the best soldiers.
qstr_You_put_the_current_|You put your banner away.
qstr_{s1}_has_returned_to|{s1} returns to your party.
qstr_Number_of_companions|The number of soldiers exceeds the party cap! {reg58} {s58}(s) left {s59} 's unit.
qstr_Number_of_prisoners_|The number of prisoners exceeds the party cap! {reg58} {s58}(s) escaped from {s59} 's unit.
qstr__This_castle_is_belo|It is occupied by Dark Knight armies.
qstr_winner_a|Unbelievable! You win again!
qstr_winner_b|Well done! Not everyone fights as well as you do!
qstr_winner_a_1|The tournament today will be a legend in Calradia history. Maybe you are just the War-God in tales. So it is an honour for us to join you, {milord/milady}.
qstr_winner_b_1|We had not expected a common person could beat so many freedom knights. But we appreciate your courage. So, we are in.
qstr_Forces_have_been_rea|'Lord Jormungand, armies have mustered and wait for your orders!'
qstr_Good_goal_of_Zendar_|'Nice! Toward Zendar. March forward!'
qstr_I_am_very_busy_if_yo|I'm busy now. Go ask Hareck.
qstr_Good_luck_{playernam|Good luck, {playername}. I'm counting on you!

qstr_o_ni_wu_chu_bu_zai_a|Oh, there you are, always!
qstr_zen_me?|What?
qstr_wo_mei_you_zou_yuan|Yeh, around you.
qstr_baoshi_borcha|What would you 'think' with the legendary treasure in hands? Certainly the more we have the better we live!
qstr_baoshi_ymira|The gem makes a gleam of charm and fear. I tried a few times but dare not touch it yet...
qstr_baoshi_marnid|Just like the minstrel sings, it might be some treasure that ancient heroes leave behind.
qstr_baoshi_rolf|The gem should be part of the holy treasure, and the treasure... Er... I just heard it from the tales.
qstr_baoshi_mengmian|Earth, water, fire, air and spirit symbolize five elements that the world consists of. That means, we must collect the five gems altogether in order to acquire the source of nature power and have a chance to fight against Church Darkness.
qstr_baoshi_anyone|I have no idea about it... But somehow it must be a treasure!
qstr_....en....|Okay...
qstr_mi_bao_rolf|It might be an iron pot, or a rusty sword, or even kids' tricks. Why do we waste time on it?
qstr_mi_bao_borcha|No one knows what's hidden in these old lands. But maybe it's something of value. Why don't we have a try?
qstr_mi_bao_ymira|Sorry, I have never seen it before. Wish you good luck, {milord/milady}.
qstr_mi_bao_marnid|Er... I'm at a loss. We need more clues now.
qstr_mi_bao_borcha2|The sentence structure…looks much like a poem-riddle we have heard in countryside. 
qstr_mi_bao_anyone|I have no idea about it.

qstr_Well_you_are_really_|Well, you are such a good fighter that many nobles recommend to me. I think the tournament will be more exciting with you in. Now you have got the admittance to take part in.
qstr_You_are_really_good_|You are really good fighter, I think the tournament will be more exciting because of you, now you can register in the arena.
qstr_Many_nobles_have_men|Many nobles have recommended you. So I accept you to take part in the game. Go register in the arena.
qstr_Looks_like_many_nobl|Looks like many nobles accepted you for your good records. Now you can take part in the game. Go register in the arena.

qstr_hao_jiao_ymira|I saw it shine in the night like stars in the sky.
qstr_hao_jiao_borcha|Guess how much is this old thing worth? We should study the market...at tavern, and drink a wine by the way.
qstr_hao_jiao_rolf|Forget the strange horn. We should start with these mythical forces from foreign lands, such as the strange black-dressed knights.
qstr_hao_jiao_marnid|Is it saying about…a direction? If ocean is in the north, the place should be...

qstr_bi_sai_marnid|I heard it in Zendar that Dranton won ten games in a row. What a leading card!
qstr_bi_sai_borcha|Recommendation? Ha-ha, as long as you contact them often, they will certainly accept you and help with the recommendation. 
qstr_bi_sai_rolf|We will win the tournament! Ha-ha, I just can't wait to fight now.
qstr_bi_sai_ymira|I think it might also works if you put your efforts equally into both targets. 

qstr_horse_1_msg_1|Mount a horse and ride around the field. The timing starts from the first flag. Pass though the flags one by one and shoot at the targets in the central yard. When you pass a flag, another one will appear ahead. You will pass the game if you finish two laps within 80 seconds and get 60 scores or more. ^^Notes: You MUST finish each lap within 50 seconds. 
qstr_horse_2_msg_1|Mount a horse and ride through the corridor. The timing starts from the first flag. Pass though the flags one by one and hit/cut the scarecrows on the way. When you pass a flag, another one will appear ahead. You will win the game if you finish the race within 100 seconds and get 1200 scores or more. ^^Notes: You MUST run in the direction of the flags. 

qstr_room|Arms capacity
qstr_{s1}_of_{s3}_was_def|{s1} of {s3} was defeated by {s2} but managed to flee away.
qstr_archery_target_hit2|Distance: {reg61} yards. Double score: {reg60}
qstr_horse_race_message|Time: {reg58} ^^Total score: {reg59}
qstr_You_succeed!|You succeed!
qstr_You_failed!|You failed!
qstr_<Success>|[Success]
qstr_<Failure>|[Failure]
qstr_{s1}_was_killed!|{s1} was killed!
qstr_kradus_join|The Dark Knights armies seem tough. Hey, count me in. Or, you won't have a chance to defeat them.
qstr_dranton_join|Well, I'm in too.
qstr_Patry_morale:{reg60}|Party morale: {reg60}. Low morale!
qstr_ransom_accept_offer|{s58} of {s57} is set free from prison. 
qstr_hero_free_1|{s58} of {s57} escaped from the prison in {s59}!

qstr_Rescue_success!|Succeed in the rescue!
qstr_Rescue_failure!|Failed in the rescue!
qstr_Do_very_well_{p|Good job, {playername}.
qstr_companions:{reg1}/{r|Companion: {reg1}/{reg2}  Prisoner: {reg3}/{reg4}
qstr_Your_horse_heard_the|Your horse hears the whistle!
qstr_No_horses_available.|There's no horse available!
qstr_Can_t_use_this_skill|This skill cannot be used while mounting!
qstr_Stop_a_rapid_march.|Your army stops rapid march!
qstr_Low_morale!_Stop_a_r|Low morale! Stop rapid march!
qstr_Low_morale!_Can_not_|Low morale! Can't have a rapid march!
qstr_{reg1}_times|{reg1} times
qstr_Closed|Off
qstr_Open|On
qstr_Rapid_march|Rapid march
qstr_Sneak_march|Sneak march
qstr_Shortcuts|Hot key: '{s1}'
qstr_Normal|Normal
qstr_Army_Status:{s10}|Army Status: {s10}
qstr_Your_troops_began_a_|Your army is on rapid march.
qstr_Battle_field_reinfor|Number of reinforcements in battle
qstr_Rapid_march_morale_l|Morale requirement for rapid march
qstr_Morale_not_less_than|Morale not lower than {reg1}
qstr_Frequency_of_Rain_or|Frequency of rain/snow: {reg2}%
qstr_{s1}_s_troops.__{s2}|{s1}'s army ({s2} {s3})
qstr_Whose_force_is_you_w|Which NPC unit do you want to call back?
qstr_There_is_no_force_no|There's no NPC units sent out.

qstr_You_ah......|It's you! ...
qstr_Piss_off......|Leave me! ...

qstr_Follow|Follow
qstr_Besieging|Seige
qstr_Holding_|Defend
qstr_Patrolling_around|Patrol
qstr_Recruiting_troops_from|Draft from
qstr_Free_activities|Free patrol
qstr_Attack|Attack
qstr_Retreating_to|Retreat to
qstr_Standby|Stand by
qstr_weapons_shop|Weapon store
qstr_armorer_shop|Armor store
qstr_horses_shop|Horse store
qstr_store|Grocery store
qstr_Go_and_talk_to_the_d|Go inquire about the National Tournament at the arena in {s59}.
qstr_Collecting_informati|Go find more information and clues at taverns everywhere.
qstr_Chase_the_Dark_Hunte|According to Rolf, go chase Dark Hunter.
qstr_You_become_a_champio|You win the game! Go receive your awards from {s59}!
qstr_{s58}_has_join_your_|{s58} joined you!
qstr_Escaped_together_wit|Take {s1} to escape from the town!
qstr_We_will_riding_if_we|If we had horses, we would ride into the battlefield.
qstr_Ok_we_will_walk_into|Okay, we will fight on foot.
qstr_We_will_use_ranged_w|We'll try to take ranged weapons.
qstr_Ok_we_will_not_use_r|Alright, we won't use ranged weapons.
qstr_Ok_I_will_riding.|Okay, I will fight on horse.
qstr_Ok_I_will_walk_into_|Okay, I will fight on foot.
qstr_Return.|[Return]
qstr_Need_to_wait_{reg1}_|It takes {reg1} hours to wait.
qstr_Prosperity_is_not_en|Not enough prosperity
qstr_Unmanning_excess|Sufficient soldiers
qstr_{s1}_s_party_has_not|There's no food for {s1} unit!
qstr_Go_to_the_arena_in_{|Go attend the National Tournament in the arena of {s58}.
qstr_Now_I_have:|Now I have: 
qstr_Go_talk_to_the_{s59}|Go ask {s59} about the National Tournament
qstr_Visit_warriors_in_th|Go talk to the fighters in Zendar tavern about the National Tournament.
qstr_I_haven_t_any_food.| I don't have any food.
qstr_{s10}^{reg1}_{s1}|{s10}^{reg1} {s1}(s)
qstr_Because_of_hostile_r|Because of hostility to you, {reg58} {s58}(s) escaped from {s1}'s troops.
qstr_Command_has_been_sen|The order has been sent out.
qstr_Annihilate_troops_re|Total kills: ^{s2}
qstr_Are_you_ready_for_ba|Are you ready for the battle? 

qstr_Looters|Looters
qstr_River_Pirates|River Pirates
qstr_Sea_Raiders|Sea Raiders
qstr_Mountain_Bandits|Mountain Bandits
qstr_Forest_Bandits|Forest_Bandits
qstr_Tundra_Bandits|Taiga Bandits
qstr_Black_Khergit_Raider|Black Khergit Raider
qstr_Steppe_bandits|Steppe bandits
qstr_Dark_Pilgrims|Pilgrims Darkness
qstr_Dark_Hunters|Dark Hunters
qstr_Dark_Avengers|Dark Avengers
qstr_Dark_Knights|Dark Knights
qstr_Dark_Destroyer|Dark Destroyer
qstr_Dark_Legion|Dark Legion
qstr_Dark_Inquisitor|Dark Inquisitor
qstr_Knights_of_Freedom|Knights of Freedom
qstr_Country_Name:_{s10}|Country name: {s10}
qstr_Country_Name:_{s10}_|Country name: {s10}
qstr_{s1}_kingdom|{s1} Kingdom
qstr_March_in_Line|March in line
qstr_March_in_Lines|March in matrix
qstr_Holding_Highlands|Hold the highland
qstr_Holding_L|Hold the flank left
qstr_Holding_R| Hold the flank right
qstr_Rush_Repeatedly|Rush repeatedly
qstr_Outflank_Left|Outflank left
qstr_Outflank_Right|Outflank right
qstr_Unset|None
qstr_Group_Name|Group name
qstr_Group_Tactic|Group tactics
qstr_State|Status
qstr_On|Done
qstr_Off|Undone

qstr_Delivered_{reg1}_ene|Deliver {reg1} damage by energy strike!
qstr_Received_{reg1}_ener|Deliver {reg1} damage by energy strike!
qstr_Start_up_energy_stri|Start energy strike!
qstr_Quit_energy_strike_m|Cancel energy strike!
qstr_{s1}_Start_up_energy|{s1} starts energy strike!
qstr_{s1}_Quit_energy_str|{s1} canceled energy strike!
qstr_Energy_strike|Energy strike
qstr_Sprint|Sprint
qstr_Enabled|Enabled
qstr_Disable|Disabled
qstr_Unable|Unable
qstr_Need_you_Level_not_l|It requires at least level 10, Int 12, 'Iron flesh' 6 and 'Power strike' 6.
qstr_Energy_Strike|Energy strike
qstr_Infantry:_{s10}|Infantry: {s10}
qstr_Archer:___{s10}|Archer: {s10}
qstr_Cavalry:__{s10}|Cavalry: {s10}
qstr_Def._+_{reg0}%__^{re|DEF: + {reg0}%   ^{reg33? ATT: + {reg33}%:}
qstr_Def._+_{reg0}%__^{reg| DEF: + {reg0}%   ^{reg33? Horse Armor: + {reg33}%:}
qstr_Exp:{reg2}___Next:{r|EXP: {reg2}   Next level: {reg32}
qstr_Rapid_march_world_ma|Rapid March (on map)
qstr_Sneak_march_world_ma|Sneak March (on map)
qstr_Delivered_{reg1}_dam|Deliver {reg1} damage.
qstr_{s1}_killed_by_{s2}.|{s1} is killed by {s2}.
qstr_{s1}_wounded_by_{s2}|{s1} is knocked down by {s2}.
qstr_Can_t_use_this_skill|Can't use this skill on horse!
qstr_The_Doomsday_storm_s|Ride too slow to launch 'Doom Buran' skill!
qstr_{s1}:_Bleach_Kiss!!|Bleach Kiss!
qstr_{s2}__{s1}_into_chao|{s1} of {s2} falls into chaos!
qstr_{s2}__{s1}_recovery_|{s1} of {s2} recovers from chaos!
qstr_Extra_Penetration|Extra penetration
qstr_Show_players_lines|Display character's line
qstr_Set_lines|Lines setting
qstr_And_I_heard_{s59}_wa|Also, they said {59} is holding National Tournament.
qstr_You_art_in_the_enemy|You are in enemy's view, so you can't sneak.
qstr_There_is_an_enemy_ne|You can't sneak because enemies are nearby.
qstr_Your_troops_began_a_s|Your party is in sneaking status!
qstr_Stop_a_sneak_march.|Your party stops sneaking!
qstr_Stop_{s1}_detachment|Cancel {s1} group tactics.
qstr_{s1}_dismiss_formati|{s1}, dismiss the format!
qstr_{s1}:_{s2}_detachment|{s1}: {s2} group, dismiss the format!
qstr_{s1}_formation!|{s1}, in matrix!
qstr_{s1}:_{s2}_detachmen|{s1}: {s2} group, in matrix!
qstr_{s1}_Assault_formati|{s1}, march in matrix!
qstr_{s1}:_{s2}_Assault_f|{s1}, {s2} group, march in matrix!
qstr_Too_slow_to_get_poin|You ride too slow to score!
qstr_Fighting_lines_1|Lines in battle 1
qstr_Fighting_lines_2|Lines in battle 2
qstr_Endangered_lines_1|Lines in danger 1
qstr_Endangered_lines_2|Lines in danger 2

qstr_meng_xing|Whoops... It was... a... dream... (throat is drying up)
qstr_meng_xing2|Ah yes, here it is the tavern in Zendar...^Go get something to drink.

qstr_jixingjun_jieshuo|Click on '{s1}' to make Rapid March (accelerate moving). Your speed increases with "Pathfinding" skill and it costs your 'morale' (shown on the lower-right corner). ^^While march on the map, you may switch it on/off anytime. Also you can modify '{s1}' in the menu: Camp - Game Setting - Costum Hot-keys. 
qstr_qianxingjun_jieshuo|Click on '{s1}' to make Sneak March (hidden in a certain range). The chance to be found decreases when your "Spotting" skill enhances and/or if you are keeping a distance to the enemy. But Sneak March halves your moving speed. ^^While marching on the map, you may click on '{s1}' to switch it anytime as long as you are not too close to enemy. Also you can modify {s1} in the menu: Camp - Game Setting - Costum Hot-keys. 
qstr_chongcipao_jieshuo_1|Tips: ^^You may hold '{s1}' to move faster.
qstr_chongcipao_jieshuo_2|Tips: ^^It consumes your 'Energy' to move fast (as shown on the yellow banner at the lower-right corner). The 'Energy' cap increases with your 'Ironflesh' skill. ^^Also you can modify {s1} in the menu: Camp - Game Setting - Costum Hot-keys. 
qstr_qijimoshi_jieshuo|Click on '{s1}' to activate the 'Energy Attack'. It increases weapon damage and at the same time consumes your 'Energy'. ^The damage value varies with your skill level in using different kinds of weapons: 'Power Strike' for melee weapons; 'Power Throw' for thrown weapons; 'Power Draw' for bows; 'Ironflesh' for crossbow and bare hands. ^In the 'Energy attack' mode, the energy banner flashes continuously and your energy recovery is frozen until you stop the attack mode. ^You may click on '{s1}' to switch it anytime. Also you can modify {s1} in the menu: Camp - Game Setting - Costum Hot-keys.  
qstr_xinshoutishi|When you get close to someone or something and see his/her/its name, click on 'F' to talk or interact with him/her/it.

qstr_Quest_taken|Accept the quest!
qstr_Press__Tab__to_join_|Click on 'Tab' to take part in the manhunters hunting river pirates.
qstr_Suker_the_tavernkeep|Suker, the tavernkeeper in Zendar, asks you to help get a 50 denars payment back from Dradon.
qstr_You_find_a_strange_p|You found a strange portrait. Talk to Shoey about it.
qstr_Shoey_of_Zendar_ask_|Shoey in Zendar asks you to find twelve portraits that might be lost in some cities when she travelled around Calradia.
qstr_You_have_find_{reg1}|You have found {reg1} portrait(s) in {s2}.
qstr_Visit_Rolf_in_{s2}|Go find Rolf in {s2}.
qstr_Everyone_Charge!!|All, charge!!
qstr_Fat_Robin_the_weapon|Blacksmith Robin in Zendar asks you to find the missing fire spar. 
qstr_Kelavis_the_merchant|Kelavis in the grocery store asks your help to destroy the bandit lair  in the east mountains outside Zendar.

qstr_str_success|Er...O..Okay, today. Come in. Behave yourself!
qstr_str_failure|You bet? Pay at once, or be taken into prison!
qstr_int_success|Er...Well...Forget it. But please keep it secret...
qstr_int_failure|I don't think it is a wise choice. Pay now, or be taken into prison!
qstr_cha_success|...Oh...{milord/milady}, please forgive my rudeness. Come in, please....
qstr_cha_failure|I've never seen an agent such as you. Pay now, or be taken into prison!

qstr_Do_you_wish_to_leave|Will you quit the game?
qstr_Entries_list:^^^{s1}|Entries list: ^^^{s1}^^^【Click on 'B' to start】
qstr_{s1}^^Circuit_{reg1}| {s1}^^Circuit {reg1}: {s2} 
qstr_Final_lap__total_2_l|Last round (two rounds in all) 
qstr_1st_lap__total_2_lap|First round (two rounds in all)
qstr_{s1}_won_the_game!|{s1} wins the game!
qstr_Ranking:^^^{s10}^^^<|Ranking: ^^^{s10}^^^【Click on 'Tab' to return】
qstr_tishichaoxian|The number of soldiers in {s3}'s army exceeds the party cap. You'd better adjust in Troops Settings to avoid soldiers' leaving.

qstr_darkpilgrims_lair_1|What the hell are you guys?
qstr_darkpilgrims_lair_2|(Prayer word) In long dark night, the only real God Mehdiuz^is guiding us. Let me offer the whole of me, to wash^from the sins and serve the God in Temple...  
qstr_darkpilgrims_lair_3|Shut up your delusion! Does 'the God' guide you^to burn a human being?
qstr_darkpilgrims_lair_4|Anyone violates the God must be cleaned by saint fire.^Look, forever darkness is coming up...
qstr_darkpilgrims_lair_5|Where's my family? Mom? Dad?
qstr_darkpilgrims_lair_6|A refugee: You are late. They were...
qstr_darkpilgrims_lair_7|No! No! Mom! Dad! Where are you?! Woo-hoo...
qstr_darkpilgrims_lair_8|... Do you have other relatives?
qstr_darkpilgrims_lair_9|We left home to avoid the war. But now...I'm the only...
qstr_darkpilgrims_lair_10|... Go to Zendar with others. It's safe by now.
qstr_darkpilgrims_lair_11|No! Let me join you! Please, let me be your soldier!
qstr_darkpilgrims_lair_12|Er... Join us?
qstr_darkpilgrims_lair_13|Please, {milord/milady}. I will take care of your horse^and wash your clothes... I work hard...
qstr_darkpilgrims_lair_14|and eat little... Please! Please take me!
qstr_darkpilgrims_lair_15|No, we can't. We are in danger and fight every day.^You want to avoid the war, don't you?
qstr_darkpilgrims_lair_16|No, no more...I have medical skills. I'll treat the wounded
qstr_darkpilgrims_lair_17|and help others pitful as me. Please, I won't be a burden!
qstr_darkpilgrims_lair_18|... Well, you are in. Let's clean here first.
qstr_banditdark_preattack|You entered the valley. The pilgrims Darkness have not detected. The refugees are tied, beside a big fire burning on the ground, which looks like a sacrifice to be held soon. It is not easy to approach there so you have to walk on foot and just take a few soldiers with you. You decide:
qstr_banditdark_success|You destroyed the lair of Pilgrims Darkness and sent the refugees to Zendar or nearby villages for security. The pilgrims behaved oddly, but there's no more clues here. You decide to return to Zendar now.

qstr_Please_set_a_group_t|Please set a group tactics.
qstr_The_Horn_of_stars_is|The 'Star Horn' sounded. Go into the camp and have a look.
qstr_Completed.|Completed.
qstr_Fenrir_left.|Fenrir left.
qstr_Armor:_{s10}^Speed:_|Defence: {s10}^Speed: {s11} ^Control: {s12} ^Charge: {s13} ^Health:  {s14}^Riding skill required: {s15}
qstr_Battle_mini_map|Mini map in battle

qstr_an_old_legend_1|Here is a diary of my ancestors, which recorded some^Zendar's history.
qstr_an_old_legend_2|Long ago, when Zendar was just a barren hills, the 'God Mehdiuz'with his super armies intruded Calradia.
qstr_an_old_legend_3|Through many years of war, the kingdoms became too weak to defend the massive Dark Knights and fell in the end.
qstr_an_old_legend_4|Overwhelming the whole land, Mehdiuz set up Durhua Empire and ruled with blood and fire.
qstr_an_old_legend_5|Calradia got into endless horror. Millions people died under the tyranny of Durhua Empire...
qstr_an_old_legend_6|At the moment of desperation, a warrior named 'Leon' appeared.
qstr_an_old_legend_7|He inspired people with justice and courage, and remove estrangement with selflessness and trust.
qstr_an_old_legend_8|Through the war over ten years, people of Calradia fought together with Leon and overthrew the rule of Durhua Empire.
qstr_an_old_legend_9|Leon? The Emperor Leon?! I'd thought it a fictitious role^elaborated by the minstrels, isn't it?
qstr_an_old_legend_10|No. According to this diary, the Dark Knights and Emperor Leon^are all real.
qstr_an_old_legend_11|After Leon's death, Calradia broke up again. The kings meant to^conceal Emperor Leon's contribution in order to avoid^admitting their ancestors' mistakes. As time passed,^what we've learned by now are only these stories.
qstr_an_old_legend_12|Anyway, the truth will be revealed some day. This medal^in your hand is a treasure Emperor Leon had worn!
qstr_an_old_legend_13|Really?! So lucky am I!
qstr_an_old_legend_14|Well, hard to say... Also a sign of disaster it might be.
qstr_an_old_legend_15|Why?
qstr_an_old_legend_16|My ancestor had the luck to fight with Emperor Leon. When^the war ended, Leon sent him to build the city,^so we have Zendar today.
qstr_an_old_legend_17|Zendar was originally called the 'Horn of Calradia' with^its responsibility to send out alarms of any invasion^by foreign enemies to the land.
qstr_an_old_legend_18|But we shouldn't have foreign enemy any more.^Mehdiuz had been defeated, wasn't it?
qstr_an_old_legend_19|Yes, it was. But Mehdiuz was not eliminated completely.^No one knows when he would come again.
qstr_an_old_legend_20|So, these pilgrims Darkness...?
qstr_an_old_legend_21|They probably have something to do with Church Darkness.^And, Leon's medal shows up. Seems not a good omen...
qstr_an_old_legend_22|I see... Then, what's you plan, sir?
qstr_an_old_legend_23|Taken after my ancestors, I must do my duty to warn the kingdoms. 
qstr_an_old_legend_24|The situations today seemed so much like the past. Wars lasted^many years among the kingdoms. If Mehdiuz did turn back,^Calradia would again drop into disaster...
qstr_an_old_legend_25|Mmm, those pilgrims acted terribly...
qstr_an_old_legend_26|So, I want you to bring my letter and warn the kings.
qstr_an_old_legend_27|Me? Why? Your steward or descendant should be better at^dealing with the nobles.
qstr_an_old_legend_28|Time presses. And your frankness will be more effective than^flaunty etiquettes and hollow speech.
qstr_an_old_legend_29|Additionally, we have no idea about the Dark side's plan.^You may investigate the pilgrims by the way.^Hope we can get something valuable.
qstr_an_old_legend_30|I see. It is my honor.
qstr_an_old_legend_31|According to the diary, some sort of amazing power is hidden^in the 'Hero Medal'. But it is unclearly yet. You'd better^find more information elsewhere.
qstr_an_old_legend_32|Wish you good luck, {playername}.

qstr_tactic_requirement|Can not use 'Tactics' with less than 5 points of 'Tactics' skills. 

qstr_meet_melva_01|Okay, you are here.
qstr_meet_melva_02|You are the head?! What do you say then?
qstr_meet_melva_03|Why do you always annoy us? Just for the bounty?
qstr_meet_melva_043|[STR] Why not? You do evils for gold, too, don't you?
qstr_meet_melva_042|[INT] To catch all, first catch the head. Now, you show up. 
qstr_meet_melva_041|[CHA] I don't care that. Just help people keep their purses.
qstr_meet_melva_05|You know nothing! Don't be meddling. Get out of here, now! 
qstr_meet_melva_06|I will leave, when I catch you. 
qstr_meet_melva_07|Catch me? Ha-ha-ha! Sounds interesting...
qstr_meet_melva_08|Ok. What about a fair deal between you and me? The loser will be^dealt at the mercy of the winner.
qstr_meet_melva_09|That's deal!

qstr_I_help_you_~_ !!|Monster?! Go, help them!
qstr_Hooooooo_~_~_!!!|Hooooooo!!!
qstr_Someone_help_~_~_!!|What the hell is it?! Help!!
qstr_oguma_1|You scum, don't bring shame to taiga!

qstr_You_have_recovered.|Your health has recovered.
qstr_Take_a_rest?|Have a rest?
qstr_ha1|No big deal.
qstr_ha2|Ha-ha-ha, you are right.
qstr_xingchen_tishi|Cross the sea to find the truth.
qstr_Hold__F__to_open_the|Hold 'F' to open the door ^{s2}
qstr_Hold__F__to_spin_the|Hold 'F' to start the gate winch ^{s2}
qstr_Exposed|Exposed
qstr_Alert|Alerted
qstr_Look_out|Cautious
qstr_Hidden|Hidden
qstr_yueyushuoming|Avoid the patrols' views and keep a distance for security. Once you were exposed, there would be a continuous fighting inevitably. You may send order to companion such as 'Stand ground' or 'Follow me'. ^^Keep aware of the status reminder on the top, which indicates the risk levels with 'Hidden', ' Cautious', 'Alerted' and 'Exposed' from low to high. You'd better keep in 'Hidden' because if you were 'Exposed', the guards would come and fight you continuously. You must protect the companion from being stunned; otherwise you will fail on the mission at all.
qstr_sea_raider_dock|Pirate Port.  {s4}
qstr_ship_ready|The boats are prepared. You can put out to sea any time.  
qstr_ship_not_ready|The boats are still in preparation, which will take {reg1} more hour(s). 
qstr_da_kai_cheng_men|Manage to open the city gate.
qstr_Sneak_Damage_x_{reg1|Inflict additional {reg1} damage!
qstr_Hp_hurting!_You must|Oxygen exhausted. HP depressed! Return from the water now!
qstr_set_player_lines_|Once your kill three or more enemies in battle, a 'fighting lines' of yours will be displayed randomly.^When your HP below 30% in battle, a 'endangered lines' of yours will be displayed randomly.^Double click the mouse on the line to edit/modify the words; 'Enter' to confirm, 'Esc' to cancel.^'Alt+Enter' to switch to window mode for easy Chinese typing.

qstr_p_lines_k_1|All Idiots, get out of my way!
qstr_p_lines_k_2|Head! Throat! Hips! Ha-ha, this is the purported triple strikes!
qstr_p_lines_d_1|Oh, no! Don't hit the face...!
qstr_p_lines_d_2|Er... It's just pink elephants! Can't frighten me...
qstr_Hidden_valley|A hidden valley
qstr_Hidden_valley_action|A hidden valley, where you can station soldiers and restore foods. If  food was exhausted, the soldiers might flee away. What do you want to do? 
qstr_water_gem_effect3_tx|You can breathe in the water! 
qstr_There_are_enemy_near|Enemy is nearby! Mustn't rest.
qstr_la_la_la_la_la|O meko suiy da gulu vio! O'm te, O'm le~

qstr_Draw_sword_art!!|Draw sword art!!
qstr_badaoshu|The sword of 'Lonely Swordsman'.^With full energy, hold left 'Alt' key and^draw the sword to perform the 'Draw Sword Art'.^The enemies in the front will be killed at a flash^ with your energy exhausted.

qstr_no_food_{reg1}_{s1}_|{reg1} {s1}(s) left {s2} because the emptiness of food there.
qstr_{s1}_food_{reg1}_day|The remains of {s1}'s food can last {reg1} day(s) at most. Please get more provisions asap.
qstr_Trap_built_completed|The trap has been set up!
qstr_Trap_built_fail|The building of trap failed!
qstr_Out_of_effective_tra|Out of Trap range!
qstr_In_effective_trap_ra|Into Trap range!
qstr_Trap_Expired.|Your Trap near {s2} is expired. 

qstr_Start_trap|The enemy entered the trap, launch it now? ^^(If not now, you can launch it in another battle before expiration)
qstr_Launched_trap!|Launch the trap!!
qstr_explain_for_trap|You've set a trap on the battlefield. Once the enemies come close and get into the trap range, you will have a choice – whether or not launch it for a severe damage to the enemies and their horses. If you don't launch it, you can make the choice in another battle.
qstr_{s1}_killed_by_trap!|{s1} is killed by the trap!
qstr_{s1}_wounded_by_trap|{s1} is knocked down by the trap!
qstr_alix_nomad_armor_col|Alix, the armor supplier of Zendar, asks you to help find twenty-five suits of {s3}.
qstr_haicha|Need to find {reg2} more.
qstr_can_not_retreat_dung|Keep yourself 'hidden', or you can't leave here with 'Tab'!
qstr_For_build_a_trap|It is used for making a trap
qstr_hope_12345|Hope the kings are alerted by the recurrence of Church Darkness.
qstr_{s1}_leave_main_part|{s1} leaves your troops!
qstr_Arrows_is_not_enough|Lack arrows!
qstr_feather_arrows_text|Slow the target moving at half speed.
qstr_{s1}:_Multishot_Arro|{s1}: Succesive Shot!
qstr_{s1}:_Multiple_Shot!|{s1}: Multiple Shot!
qstr_Multishot_Arrow__hol|Succesive Shot (Hold {s20} to shoot three sequent arrows.)
qstr_Multiple_Shot__hold_|Multiple Shot (Hold {s20} to shoot a flight of three arrows.)
qstr_Critical_Strike__Ene|Critical Strike (A passive skill. Energy damage increases by 150 percent)

qstr_global_changes_01|The Dark Armies' encountered heavy resistance in Zendar from {playername} and Count Arrasies Union. They made sieges several time but all got defeated with a great damage. 
qstr_global_changes_02| Jormungand, a bloodthirsty giant unforgettable, showed chilly madness in his eyes when he retreated from Zendar, implying more fierce battles in the future.
qstr_global_changes_03|Zendar holds its position but still in the shadow of Darkness. War drums are beaten in low; black armies gather around. People just wish the walls could be repaired before next battle.
qstr_global_changes_04|The Dark Armies cut off every paths towards Zendar. But Borcha gets some news in his way – that is, Tihr and Wercheg both fell.
qstr_global_changes_05|At the same time Fenrir and Hel's armies took them easily because some Nords authorities has gone over to the dark side and then opened the city gates.
qstr_global_changes_06|Wercheg's falling warned Vaegir. {s1} of Rivacheg and {s2} of Bulugha Castle might see a great war coming up and called up their armies.
qstr_global_changes_07|In north Rhodoks, {s1} and other lords are blind to the wars in Nords. But having Jelbegi Castle in hand, Dark Armies are ready to march south approaching Yalen. 
qstr_global_changes_08|New wars broke out in Kerghit, south of Calradia. Sanjar Khan is busy fighting with other kingdoms as well the Dark Knights on his land. 
qstr_global_changes_09|Baheshtur, the head of Black Khergit, took the opportunity to assault Sanjar Khan's royal armies.
qstr_global_changes_10|Through a long nomad life againt bad environment, Black Khergit soldiers become superior skilled and perseverant in fighting. As lord of Narra, {s1} can only withstand in cover of the walls.
qstr_global_changes_11|In the central land, King Harlaus of Swadia takes no reaction to these wars around and so far kept a strange quietness.
qstr_global_changes_12|It seems to be a fear of the powerful Swadia Royal Knights that Dark Knights have not carried out an attack yet. 
qstr_global_changes_13|Just now, you get news from the scouts – an army is in a dangerous siege by a Dark unit near Udiniad village.
qstr_global_changes_14|You decide to aid them right now.

qstr_global_changes_dk01|Under your lead, the Dark armies attacked Zendar and finally broke through the walls.
qstr_global_changes_dk02|Arrasies should have expanded sooner rather than barely maintained Zendar's existence. The weak is doomed to die. Then, who will be the next? ... You are waiting for Garneev's order.
qstr_global_changes_dk03|At the same time, Fenrir and Hel took Tihr and Wercheg quite simply. They encountered little resistance since those lords who had gone over to Dark side opened the city gates.
qstr_global_changes_dk04|This war seems no worse than those battles among five kingdoms. Just one side wears in black. Yes, that is just the human nature, like what Fenrir told before.
qstr_global_changes_dk05|Having Tihr, Wercheg and Zendar in hand, Dark Armies has laid a solid foundation for their further expansion inland. Thus an unforeseen disaster is about to sweep over Calradia lands. 
qstr_global_changes_dk06|The fall of Wercheg warned Vaegir. {s1} of Rivacheg and {s2} of Bulugha Castle seem to get a premonition of a great war and have called up the armies.
qstr_global_changes_dk07|In the north of Rhodoks, {s1} and other lords have been blind to the wars in Nords. But, having taken Jelbegi Castle, Dark Armies would march to south in any time to threaten Yalen. 
qstr_global_changes_dk08|In south of the lands, Khergit gets in trouble of new wars. - Sanjar Khan is busy fighting with other kingdoms and the Dark Knights in his land. 
qstr_global_changes_dk09|But in a sudden, Baheshtur leads his Black Khergit takes the opportunity to assault Sanjar Khan's armies after a long endurance. 
qstr_global_changes_dk10|Struggling against the bad environment for many years, Black Khergit soldiers were super skilled with extraordinary perseverance in fighting. So, {s1} the lord of Narra has no way but withstand in cover of the walls. 
qstr_global_changes_dk11|In the central area, King Harlaus of Swadia does not react to the current wars on strange quietness.
qstr_global_changes_dk12|And the Dark Knights skirted around Swadia land, which looks to be some secret understanding between the two parties. 
qstr_global_changes_dk13|Just now, you got news from the Dark Hunters – a unit of Nords was founded near Udiniad on its way to Sargoth.
qstr_global_changes_dk14|You decide to go check it by yourself. 

qstr_t_w_no_admittance|The gate of {s2} is locked in a siege. You cannot enter the town.
qstr_Dark_Durhua_Empire|Empire Durhua 
qstr_{s2}_escaped!|{s2} escaped!
qstr_The_wounded_soldiers|Wounded Nords Army 
qstr_Press_X_to_switch_mo|Click on 'X' to switch weapon modes.
qstr_rider_fall_damage|Got {reg1} point(s) of falling damage!
qstr_lords..|Lords 

qstr_Multishot_Arrow|Successive Shot 
qstr_Multiple_Shot|Multiple Shot 
qstr_Critical_Strike|Critical Strike 
qstr_Power_Strike|Power Strike 
qstr_Power_Draw|Power Draw 
qstr_Doomsday_Storm_expla|'Doom Buran' - brings continuous damages to nearby enemies while you charge on horse by the consumption of energy. 
qstr_Bleach_Kiss_explanat|'Bleach Kiss' - brings damage to all the enemies in the direction of your shooting by large consumption of energy, and causes a certain chance of death or chaos.
qstr_Dark_Thunderbolt_exp|'Dark Thunderbolt' - brings heavy damage to nearby enemies and horses by large consumption of energy; slows down the enemy attack; and absorbs HP from the enemies. 
qstr_Multishot_Arrow_expl|'Successive Shot' - shoots three sequent arrows a time at same target by the consumption of energy.
qstr_Multiple_Shot_explan|'Multiple Shot' - shoots a flight of three arrows for a wide attack by the consumption of energy.
qstr_Critical_Strike_expl|'Critical Strike' – uses melee weapon (Must) in "Energy Attack" mode; increases energy damage by 150 percent without extra consumption of energy.
qstr_learn_kill_finished|Under the direction of {s2}, you have mastered '{s1}' skill! ^^{s3}
qstr_ma_chang!!!!!!|Marnid invites you for a talk in the camp.
qstr_raoluanchenggong|Interrupted by {s6}'s plot, the enemy {s5} does not reach the battlefield. 
qstr_raoluanshibai|{s6} 's plot to interrupt {s5} failed.
qstr_baheshtur_1st_linse|Drums beat! War god blesses us! Charge!
qstr_Lost_Knight|Lost Knight 
qstr_last_tactics_points:|Tactics points remained: {reg1}
qstr_To_lure_the_enemy|Lure the enemy (success rate: {reg1}%)
qstr_lure_success_remaini|The enemy was lured and chasing your troops. Valid time remained: {reg1} hour(s). 
qstr_lure_failure_remaini|The enemy is blind your luring for {reg1} hour(s).
qstr_lure_success|Your luring succeeds! ^^{s3} will chase you for {reg2} hour(s)! 
qstr_lure_failure|Your luring failed! ^^{s3} will be blind to your luring for {reg2} hour(s)! 
qstr_tactics_points_not_e|You have not enough tactics points! 
qstr_explain_for_custom_b|Tips ^^You can use 'Home', 'End', 'Delete', and 'PageDown' on keypad to adjust the camera views; and hold 'Ctrl' to move the camera faster. Press left 'Shift' or '~' key (tilde) to default. ^^You may also modify the hot-keys in the menu: Camp --- Game Setting --- Custom Hot-keys.
qstr_tip_for_tactics|Tactics points ^^^You can get tactics points everyday no more than half of your 'Tactics' level. You can operate tactics such as Trap/Feint/Lure by the consumption of your tactics points until it goes empty. ^^Click right mouse to check the remaining points.
qstr_tip_for_lure|Tactics: Lure the enemy ^^Righ-click on a nearby enemy unit and choose the tacticsin the menu to lure the enemy to chase yourself ignoring the forces balance and surroundings.^^The more 'INT' you have than the enemy leader or the larger distance there is between the two armies, the higher success rate you get. Succeed or not, it consumes 1 tactics point for each time. ^^Right-click to check remaining points. 
qstr_Not_Enabled|Not enabled.
qstr_cbt_text|There's a line of blurry words on the map: ^'...follow the rocks...'.

qstr_The_{s1}_group_is_em|There's no soldier in the group. Unable to perform the tactics.
qstr_You_don_t_have_enoug|There's not enough room in your inventory.
qstr_Battle_lines_show_fu|Display enclosed helmet on the head for battle lines
qstr_the_history_01|Calradia History:    
qstr_the_history_02|A.D.210  On the ocean coast, Calradia National Confederacy (CNC) was founded.    
qstr_the_history_03|A.D.240  Calradia people forged a new life of prosperity.    
qstr_the_history_04|A.D.632  Territory expanded, covering east to snow mountains and south to grasslands.     
qstr_the_history_05|A.D.703  CNC fragmented; the ancient Empire of Calradia was established.     
qstr_the_history_06|A.D.751  Foreign exchanges began to flourish. A variety of religions with new cultures came in.     
qstr_the_history_07|A.D.802  The internal strife caused the ancient Calradia Empire to collapse.     
qstr_the_history_08|A.D.806  Durhua Empire invaded, with an intrusion of 'Church Darkness'.     
qstr_the_history_09|A.D.808  Dark Knights swept Calradia, bringing death to hundreds of thousands.     
qstr_the_history_10|A.D.810  Tragedy of Calradia - Women and children were sacrificed in the 'offer' to 'God Darkness'.     
qstr_the_history_11|A.D.890  Calradia people's resistance rose from all around.     
qstr_the_history_12|A.D.893  The wonder of Saint Byalt Temple created National Alliance of Liberty.     
qstr_the_history_13|A.D.894  The Great War broke out.     
qstr_the_history_14|A.D.901  Dark Amies were defeated; Durhua Empire fell down.     
qstr_the_history_15|A.D.903  The Great Calradia Empire was founded; homes were rebuilt.     
qstr_the_history_16|A.D.950  The Great Emperor Leon passed away.     
qstr_the_history_17|A.D.960  Central regime collapsed. Different factions exercised local powers.     
qstr_the_history_18|A.D.1011  The civil war fell upon the land.     
qstr_the_history_19|Calradia sinks into wars again...

qstr_{s2}:_Owe_you_{s1}!|I owe you one! {s1}.
qstr_{s2}:_Thank_{s1}!|Thanks for your help! {s1}!
qstr_Because_the_guards_i|Lack of guards, {reg1} {s1}(s) fled away from the hidden valley.
qstr_Custom_battle_camera|Custom the camera in battle
qstr_Home_End_Delete_Page|Home, End, Delete, PageDown
qstr__Arrow__Up_Down_Left|(direction keys ) Up arrow, Down arrow, Left arrow, Right arrow
qstr_Numpad8Numpad2Numpad|(number pad)8, 2, 4, 6
qstr_explain_for_call_hor|You can click '{s1}' key to whistle your horse back.
qstr_No_items.|Check the loot. Nothing there. What are you going to do?
qstr_One_item.|Check the loot. Only one thing there. What are you going to do?
qstr_Many_items.|Check the loot. There are {reg20} items. What are you going to do?
qstr_Abandon_and_Leave.|Have NPC loot automatically and then leave.
qstr_There_are_{reg1}_{re|{reg1} {reg3?items have:item has} been sold for {reg2} {reg4?denars:denar}.
qstr_Nothing_to_sell.|Nothing sold.
qstr__{reg0}_item_s__for_|(There is/are {reg0} item(s) to be sold)
qstr_get_tactics_points|Current tactics point(s) is/are {reg1}.
qstr_You_have_got_special|You got special item!
qstr_Lead_troops_alone.|Leading a group alone! 
qstr_Important_item!|{s1} is an important item. Do NOT sell!
qstr_Unique_item!|{s1} is a 'unique' item. Better NOT sell!
qstr_Unique_item_2!|{s1} is a 'unique' item. Any cheat might cause running errors!
qstr_Warning!|Warning!

qstr_You_should_destroy_{|You should destroy {reg10} more groups.
qstr_Go_to_the__Happy_boa|Go talk to Marnid in 'Happy Boar' (tavern) of Zendar.
qstr_Looking_for_a_wizard|Look for a guide.
qstr_Go_{s2}_to_find_a_wi|Go find in {s2} the guide Ramun told about.

qstr_zhu_xian_0|You are at 'Happy Boar', the tavern of Zendar. Go downstairs talk to the tavernkeeper named 'Suker'.
qstr_zhu_xian_1|Go to Zendar Square.
qstr_zhu_xian_2|Talk to Constable Hareck to receive the quest of hunting river pirates.
qstr_zhu_xian_3|Join in a manhunter group to hunt the river pirates outside the town.
qstr_zhu_xian_4|Recruit in Zendar and set up a team of yours.
qstr_zhu_xian_5|Go on with the task of hunting river pirates.
qstr_zhu_xian_6|Suker has something urgent to talk with you. Go find him in the tavern of Zendar.
qstr_zhu_xian_7|Search out the Pilgrims Darkness and rescue the captured refugees. They just left Zendar for Wercheg, not far away. 
qstr_zhu_xian_8|Search the hideout of Pilgrims Darkness in the west valley of {s5}, and rescue the captured refugees.
qstr_zhu_xian_9|You have rescued the refugees! Return to Zendar and report to the tavern keeper. 
qstr_zhu_xian_10|Go talk to Trainer Guy and Count Arrasies with the 'Certificate of a Knight' on you.
qstr_zhu_xian_11|Go on with the quest of hunting river pirates. Wait for Count Arrasies's investigation on 'Mediuz'.
qstr_zhu_xian_12|You have destroyed most of the river pirates. Go talk to Count Arrasies again. (With Borcha in your troops).
qstr_zhu_xian_13|Hunt the pirates head named 'Nabar'. Take him seriously. Count Arrasies advises you to improve your strength to fight Nabar.
qstr_zhu_xian_14|Return to Zendar and talk with Count Arrasies.
qstr_zhu_xian_15|Get to meet with each king and forward Count Arrasies's letter. So far you need to visit {s10}.
qstr_zhu_xian_16|Get more information in the taverns everywhere. (Offer people a drink.)
qstr_zhu_xian_17|Trail the Pilgrims Darkness.
qstr_zhu_xian_18|According to the tavernkeeper, you should go to {s60} village to search for the legendary treasure.
qstr_zhu_xian_19|You've got one of the five gems. Go on searching the next one according to 'Star Horn'.
qstr_zhu_xian_20|You've got two gems. Go on searching the next one according to 'Star Horn'.
qstr_zhu_xian_21|Trail the Dark Hunters.
qstr_zhu_xian_22|Swadia's National Affairs Counselor named 'Dangier' suggests you to visit Scholar Triap in {s10}.
qstr_zhu_xian_23|Get to finish the quest of destroying forest bandits, as the tavernkeeper of Praven requests.
qstr_zhu_xian_24|Get to defeat Dark Inquisitor!
qstr_zhu_xian_25|Get more information in the taverns everywhere.
qstr_zhu_xian_26|Trail the Dark Knights. 
qstr_zhu_xian_27|Go ask about the National Tournament of {s2} in the arena of {s59}.
qstr_zhu_xian_28|Go ask {s59} about the National Tournament of {s2}.
qstr_zhu_xian_29|Talk to the fighters in Zendar's tavern about the National Tournament of {s2}.
qstr_zhu_xian_301|Task report: {s5} is done.
qstr_zhu_xian_30|Qualifications for National Tournament of {s2}: Have 5+ points of relationship with {s3}, plus any of the followings: ^  1. Make several successive wins at 'melee fights' or 'tournament' in any city.  ^  2. Promote your renown and relationship with {s2}.  ^  3. Make progress in both above to get a certain sum.  ^{s4}
qstr_zhu_xian_311|You have shown superior capability in the tournament.
qstr_zhu_xian_312|You have shown great strength in the tournament.
qstr_zhu_xian_313|You've got the approval of most lords of {s7}.  
qstr_zhu_xian_314|You've got the approval of some lords of {s7}. 
qstr_zhu_xian_315|Go talk to {s3} for the admission of the National Tournament.
qstr_zhu_xian_31|Go attend the National Tournament of {s2} in the arena of {s58} .
qstr_zhu_xian_310|You've got three gems. Go on searching others according to "Star Horn".
qstr_zhu_xian_32|You've got three gems. The words on "Star Horn" changes: {s5}. {s6}
qstr_zhu_xian_320|Talk to Xerina in tavern of Zendar.
qstr_zhu_xian_321|Go talk with the mayor in Tihr or Wercheg.
qstr_zhu_xian_322|Defeat a group of sea raiders and let some enemies off. 
qstr_zhu_xian_323|Follow the deserters to find out the lair of pirates. Destroy them and get boats for you.
qstr_zhu_xian_324|Find out the 'truth' on the small island.
qstr_zhu_xian_33|{s5} of {s4} called you for a meeting.
qstr_zhu_xian_34|You've got three gems. But the 'Star Horn' was broken; there are no more clues for now.
qstr_zhu_xian_35|Return to Calradia with the 'Morrior of Truth'. 
qstr_zhu_xian_36|Zendar is threatened by the Dark Armies. You are rushing to the rescue!
qstr_zhu_xian_37|After a long bitter battle, you finally held Zendar. Go talk to Count Arrasies and Trainer Guy.
qstr_zhu_xian_38|Go help the unit of King Ragnar around Udiniad village; they are sieged by the Dark Knights. 

qstr_zhu_xian_101|Garneev appoints you as the commander of Dark Armies and sends Jormungand's army for your assistance. For further development in the land, you must take Zendar first!
qstr_zhu_xian_102|After a long bitter battle, you finally took Zendar. Go talk to the quart master on Zendar Square. 
qstr_zhu_xian_103|Hunt King Ragnar's army around Udiniad Village.
qstr_zhu_xian_104|Kill Rolf! Get the gem!
qstr_zhu_xian_105|You've got four gems. Go on searching other clues.

qstr_zhu_xian_pause|Thank you for enjoying 'Light & Darkness - Heroes of Calradia'! We just finished Chapter I and leave a comma here for the whole story, which will be developed with more brilliance in the near future. And your support and comment will be sincerely appreciated as always! ^^Now having your great army and companions, you may go on enjoying the adventure and fighting for your dreams!  
